%TF.GenerationSoftware,KiCad,Pcbnew,6.0.0-rc1-1.20211119git802cfc1.fc35*%
%TF.CreationDate,2021-11-22T10:45:24+01:00*%
%TF.ProjectId,DriverFinal,44726976-6572-4466-996e-616c2e6b6963,rev?*%
%TF.SameCoordinates,Original*%
%TF.FileFunction,Legend,Bot*%
%TF.FilePolarity,Positive*%
%FSLAX46Y46*%
G04 Gerber Fmt 4.6, Leading zero omitted, Abs format (unit mm)*
G04 Created by KiCad (PCBNEW 6.0.0-rc1-1.20211119git802cfc1.fc35) date 2021-11-22 10:45:24*
%MOMM*%
%LPD*%
G01*
G04 APERTURE LIST*
%ADD10R,1.700000X1.700000*%
%ADD11O,1.700000X1.700000*%
%ADD12R,1.800000X1.800000*%
%ADD13C,1.800000*%
%ADD14R,1.600000X1.600000*%
%ADD15C,1.600000*%
%ADD16O,1.600000X1.600000*%
%ADD17R,3.000000X3.000000*%
%ADD18C,3.000000*%
G04 APERTURE END LIST*
%LPC*%
D10*
X137185000Y-84343000D03*
D11*
X137185000Y-86883000D03*
X137185000Y-89423000D03*
X137185000Y-91963000D03*
X137185000Y-94503000D03*
X137185000Y-97043000D03*
X137185000Y-99583000D03*
X137185000Y-102123000D03*
D12*
X108966000Y-83820000D03*
D13*
X106426000Y-83820000D03*
D10*
X165100000Y-112000000D03*
D11*
X165100000Y-109460000D03*
X165100000Y-106920000D03*
D14*
X107696000Y-94423113D03*
D15*
X107696000Y-91923113D03*
X125730000Y-104140000D03*
X125730000Y-101640000D03*
X125730000Y-81788000D03*
D16*
X125730000Y-94488000D03*
D14*
X107696000Y-101600000D03*
D15*
X107696000Y-99100000D03*
D10*
X142240000Y-114300000D03*
D11*
X142240000Y-111760000D03*
X144780000Y-114300000D03*
X144780000Y-111760000D03*
X147320000Y-114300000D03*
X147320000Y-111760000D03*
X149860000Y-114300000D03*
X149860000Y-111760000D03*
X152400000Y-114300000D03*
X152400000Y-111760000D03*
D10*
X139700000Y-73685000D03*
D11*
X142240000Y-73685000D03*
X144780000Y-73685000D03*
X147320000Y-73685000D03*
X149860000Y-73685000D03*
X152400000Y-73685000D03*
D10*
X152425000Y-84343000D03*
D11*
X152425000Y-86883000D03*
X152425000Y-89423000D03*
X152425000Y-91963000D03*
X152425000Y-94503000D03*
X152425000Y-97043000D03*
X152425000Y-99583000D03*
X152425000Y-102123000D03*
D10*
X121925000Y-114300000D03*
D11*
X121925000Y-111760000D03*
X124465000Y-114300000D03*
X124465000Y-111760000D03*
X127005000Y-114300000D03*
X127005000Y-111760000D03*
X129545000Y-114300000D03*
X129545000Y-111760000D03*
X132085000Y-114300000D03*
X132085000Y-111760000D03*
D15*
X119380000Y-81788000D03*
D16*
X119380000Y-94488000D03*
D10*
X165100000Y-82550000D03*
D11*
X165100000Y-85090000D03*
X165100000Y-87630000D03*
X165100000Y-90170000D03*
X165100000Y-92710000D03*
X165100000Y-95250000D03*
D12*
X108966000Y-76200000D03*
D13*
X106426000Y-76200000D03*
D17*
X107696000Y-113284000D03*
D18*
X107696000Y-108204000D03*
D15*
X119380000Y-104140000D03*
X119380000Y-101640000D03*
D10*
X133325000Y-73685000D03*
D11*
X130785000Y-73685000D03*
X128245000Y-73685000D03*
X125705000Y-73685000D03*
X123165000Y-73685000D03*
X120625000Y-73685000D03*
M02*
